<svg xmlns="http://www.w3.org/2000/svg" viewBox="0 0 45.563 45.567">
  <defs>
    <style>
      .cls-1 {
        fill: #2196f3;
      }

      .cls-2 {
        fill: #fafafa;
      }
    </style>
  </defs>
  <g id="messenger" transform="translate(-0.025 0)">
    <path id="Path_15" data-name="Path 15" class="cls-1" d="M22.806,0A22.347,22.347,0,0,0,.025,21.837,21.42,21.42,0,0,0,7.619,38.087v6.531a.949.949,0,0,0,1.452.8l5.291-3.305a23.506,23.506,0,0,0,8.444,1.551A22.347,22.347,0,0,0,45.588,21.837,22.347,22.347,0,0,0,22.806,0Z" transform="translate(0 0)"/>
    <path id="Path_16" data-name="Path 16" class="cls-2" d="M115.556,171.076a.949.949,0,0,0-1.215-.266l-9.872,5.382-6.141-5.266a.949.949,0,0,0-1.289.049L85.648,182.366a.949.949,0,0,0,1.126,1.5l9.872-5.382,6.147,5.268a.949.949,0,0,0,1.289-.049l11.391-11.391A.949.949,0,0,0,115.556,171.076Z" transform="translate(-77.752 -155.504)"/>
  </g>
</svg>
