<svg xmlns="http://www.w3.org/2000/svg" viewBox="0 0 45 45">
  <defs>
    <style>
      .cls-1 {
        fill: #484848;
      }
    </style>
  </defs>
  <g id="uber" transform="translate(-275 -566)">
    <g id="Group_5" data-name="Group 5" transform="translate(275 566)">
      <g id="Group_4" data-name="Group 4">
        <path id="Path_8" data-name="Path 8" class="cls-1" d="M38.978,6.59A22.557,22.557,0,0,0,.587,20.306a.88.88,0,0,0,.877.964h14.7a.88.88,0,0,0,.881-.879V16.523h11.98V28.477H17.041V24.609a.88.88,0,0,0-.881-.879H12.2a.879.879,0,1,0,0,1.758h3.083v2.988a1.762,1.762,0,0,0,1.762,1.758h11.98a1.762,1.762,0,0,0,1.762-1.758V16.523a1.762,1.762,0,0,0-1.762-1.758H17.041a1.762,1.762,0,0,0-1.762,1.758v2.988H2.456a20.742,20.742,0,1,1,0,5.977H5.193a.879.879,0,1,0,0-1.758H1.464a.88.88,0,0,0-.877.964A22.567,22.567,0,0,0,38.978,38.41a22.464,22.464,0,0,0,0-31.82Z" transform="translate(-0.583)"/>
      </g>
    </g>
    <g id="Group_7" data-name="Group 7" transform="translate(282.341 589.73)">
      <g id="Group_6" data-name="Group 6">
        <path id="Path_9" data-name="Path 9" class="cls-1" d="M85.421,270.258a.877.877,0,1,0,.258.621A.888.888,0,0,0,85.421,270.258Z" transform="translate(-83.917 -270)"/>
      </g>
    </g>
    <g id="Group_9" data-name="Group 9" transform="translate(296.568 569.941)">
      <g id="Group_8" data-name="Group 8">
        <path id="Path_10" data-name="Path 10" class="cls-1" d="M246.351,44.844H246.3a.879.879,0,1,0,0,1.758h.051a.879.879,0,1,0,0-1.758Z" transform="translate(-245.417 -44.844)"/>
      </g>
    </g>
    <g id="Group_11" data-name="Group 11" transform="translate(299.852 570.244)">
      <g id="Group_10" data-name="Group 10">
        <path id="Path_11" data-name="Path 11" class="cls-1" d="M292.17,52.258a18.609,18.609,0,0,0-8.423-3.951.879.879,0,1,0-.325,1.728,16.841,16.841,0,0,1,7.622,3.576.88.88,0,1,0,1.125-1.353Z" transform="translate(-282.704 -48.292)"/>
      </g>
    </g>
  </g>
</svg>
