<svg xmlns="http://www.w3.org/2000/svg" viewBox="0 0 12.484 17.236">
  <defs>
    <style>
      .cls-1 {
        fill: #f8f8f8;
      }
    </style>
  </defs>
  <g id="maps-and-flags" transform="translate(-70.573)">
    <g id="Group_3" data-name="Group 3" transform="translate(70.573)">
      <path id="Path_3" data-name="Path 3" class="cls-1" d="M76.815,0a6.249,6.249,0,0,0-6.242,6.242c0,4.272,5.586,10.542,5.824,10.807a.562.562,0,0,0,.836,0c.238-.265,5.824-6.536,5.824-10.807A6.249,6.249,0,0,0,76.815,0Zm0,9.383a3.141,3.141,0,1,1,3.141-3.141A3.144,3.144,0,0,1,76.815,9.383Z" transform="translate(-70.573)"/>
    </g>
  </g>
</svg>
